…
    ## Loading required package: tidyverse

    ## ── Attaching packages ─────────────────────────────────────── tidyverse 1.3.2 ──
    ## ✔ ggplot2 3.3.5     ✔ purrr   0.3.4
    ## ✔ tibble  3.1.6     ✔ dplyr   1.0.7
    ## ✔ tidyr   1.1.4     ✔ stringr 1.4.1
    ## ✔ readr   2.1.1     ✔ forcats 0.5.1
    ## ── Conflicts ────────────────────────────────────────── tidyverse_conflicts() ──
    ## ✖ dplyr::filter() masks stats::filter()
    ## ✖ dplyr::lag()    masks stats::lag()
    ## `summarise()` has grouped output by 'key', 'total'. You can override using the `.groups` argument.

    ## # A tibble: 65 × 5
    ## # Groups:   key, total [37]
    ##    key                            total is_na na_count na_pct
    ##    <chr>                          <int> <lgl>    <int>  <dbl>
    ##  1 air_conditioning                3455 FALSE     3370  97.5 
    ##  2 air_conditioning                3455 TRUE        85   2.46
    ##  3 amenities                       3455 FALSE      937  27.1 
    ##  4 amenities                       3455 TRUE      2518  72.9 
    ##  5 balconies                       3455 FALSE     3367  97.5 
    ##  6 balconies                       3455 TRUE        88   2.55
    ##  7 barrier_free_accessibilty_entr  3455 FALSE     3373  97.6 
    ##  8 barrier_free_accessibilty_entr  3455 TRUE        82   2.37
    ##  9 bike_parking                    3455 FALSE     3455 100   
    ## 10 cooling_room                    3455 FALSE     3367  97.5 
    ## # … with 55 more rows

``` r
na_summary(vancouver_trees)
```

    ## Warning: attributes are not identical across measure variables;
    ## they will be dropped

    ## `summarise()` has grouped output by 'key', 'total'. You can override using the
    ## `.groups` argument.

    ## # A tibble: 25 × 5
    ## # Groups:   key, total [20]
    ##    key            total is_na na_count na_pct
    ##    <chr>          <int> <lgl>    <int>  <dbl>
    ##  1 assigned      146611 FALSE   146611  100  
    ##  2 civic_number  146611 FALSE   146611  100  
    ##  3 common_name   146611 FALSE   146611  100  
    ##  4 cultivar_name 146611 FALSE    79052   53.9
    ##  5 cultivar_name 146611 TRUE     67559   46.1
    ##  6 curb          146611 FALSE   146611  100  
    ##  7 date_planted  146611 FALSE    70063   47.8
    ##  8 date_planted  146611 TRUE     76548   52.2
    ##  9 diameter      146611 FALSE   146611  100  
    ## 10 genus_name    146611 FALSE   146611  100  
    ## # … with 15 more rows
…
